x,y,z
-26.522,17.659,-2.448
-25.909,17.388,-2.459
-25.323,17.128,-2.471
-24.733,16.867,-2.482
-24.142,16.605,-2.494
-23.551,16.344,-2.507
-22.96,16.082,-2.519
-22.37,15.821,-2.531
-21.779,15.561,-2.543
-21.189,15.301,-2.554
-20.598,15.042,-2.565
-20.008,14.783,-2.575
-19.418,14.526,-2.585
-18.829,14.271,-2.594
-18.24,14.021,-2.602
-17.644,13.775,-2.61
-17.034,13.534,-2.617
-16.422,13.304,-2.624
-15.813,13.09,-2.631
-15.201,12.894,-2.638
-14.576,12.715,-2.646
-13.919,12.555,-2.655
-13.256,12.428,-2.665
-12.601,12.348,-2.678
-11.944,12.34,-2.694
-11.284,12.425,-2.714
-10.651,12.584,-2.736
-10.01,12.791,-2.759
-9.394,13.011,-2.78
-8.776,13.24,-2.8
-8.135,13.49,-2.819
-7.542,13.801,-2.837
-7.014,14.202,-2.851
-6.545,14.682,-2.863
-6.083,15.129,-2.871
-5.551,15.504,-2.88
-4.965,15.786,-2.889
-4.34,15.97,-2.899
-3.694,16.05,-2.91
-3.044,16.024,-2.923
-2.407,15.893,-2.935
-1.799,15.66,-2.948
-1.237,15.331,-2.961
-0.736,14.915,-2.972
-0.31,14.424,-2.981
0.031,13.87,-2.987
0.278,13.267,-2.989
0.424,12.633,-2.986
0.464,11.983,-2.974
0.399,11.336,-2.954
0.229,10.708,-2.924
-0.041,10.115,-2.885
-0.403000000000001,9.575,-2.839
-0.849,9.1,-2.787
-1.365,8.704,-2.735
-1.939,8.397,-2.685
-2.556,8.188,-2.641
-3.198,8.081,-2.606
-3.848,8.08,-2.583
-4.504,8.146,-2.567
-5.167,8.143,-2.543
-5.826,8.019,-2.502
-6.529,7.807,-2.446
-7.144,7.613,-2.395
-7.806,7.401,-2.336
-8.608,7.144,-2.262
-9.266,6.933,-2.2
-9.992,6.7,-2.129
-10.693,6.494,-2.061
-11.349,6.383,-2.012
-12.057,6.416,-1.985
-12.73,6.52,-1.974
-13.401,6.627,-1.963
-14.073,6.734,-1.952
-14.744,6.841,-1.942
-15.416,6.947,-1.932
-16.087,7.055,-1.923
-16.738,7.188,-1.92
-17.339,7.385,-1.931
-18.003,7.662,-1.955
-18.664,7.944,-1.98
-19.324,8.226,-2.005
-19.985,8.508,-2.03
-20.645,8.789,-2.055
-21.306,9.071,-2.08
-21.966,9.353,-2.104
-22.626,9.635,-2.127
-23.287,9.917,-2.149
-23.947,10.198,-2.17
-24.608,10.48,-2.19
-25.268,10.762,-2.208
-25.929,11.044,-2.225
-26.589,11.326,-2.241
-27.25,11.608,-2.254
-27.91,11.889,-2.266
-28.571,12.171,-2.276
-29.231,12.453,-2.284
-29.845,12.713,-2.289
-30.48,12.953,-2.292
-31.098,13.09,-2.288
-31.729,13.128,-2.278
-32.386,13.062,-2.262
-33.042,12.954,-2.243
-33.682,12.935,-2.231
-34.316,13.017,-2.225
-34.929,13.2,-2.225
-35.505,13.479,-2.23
-36.029,13.845,-2.237
-36.488,14.291,-2.244
-36.87,14.805,-2.25
-37.165,15.373,-2.253
-37.365,15.98,-2.253
-37.466,16.612,-2.254
-37.465,17.252,-2.257
-37.361,17.883,-2.264
-37.158,18.49,-2.276
-36.86,19.057,-2.293
-36.476,19.568,-2.313
-36.015,20.012,-2.333
-35.489,20.377,-2.353
-34.912,20.652,-2.37
-34.298,20.833,-2.383
-33.663,20.912,-2.393
-33.024,20.89,-2.399
-32.396,20.765,-2.403
-31.797,20.542,-2.405
-31.24,20.226,-2.404
-30.742,19.825,-2.402
-30.313,19.35,-2.399
-29.937,18.801,-2.397
-29.53,18.282,-2.398
-29.066,17.852,-2.403
-28.512,17.498,-2.411
-27.894,17.201,-2.422
-27.242,16.903,-2.434
-26.601,16.617,-2.446
-26.017,16.359,-2.457
-25.426,16.098,-2.468
-24.835,15.837,-2.48
-24.243,15.575,-2.491
-23.652,15.315,-2.502
-23.061,15.054,-2.512
-22.469,14.793,-2.522
-21.878,14.533,-2.531
-21.287,14.274,-2.539
-20.696,14.014,-2.546
-20.105,13.756,-2.553
-19.514,13.498,-2.558
-18.924,13.242,-2.563
-18.334,12.99,-2.566
-17.718,12.734,-2.569
-17.083,12.482,-2.572
-16.448,12.248,-2.575
-15.808,12.035,-2.578
-15.153,11.843,-2.583
-14.511,11.677,-2.589
-13.884,11.538,-2.596
-13.229,11.417,-2.606
-12.576,11.331,-2.618
-11.92,11.313,-2.635
-11.266,11.389,-2.658
-10.627,11.546,-2.685
-9.983,11.754,-2.715
-9.363,11.975,-2.742
-8.768,12.196,-2.767
-8.126,12.437,-2.792
-7.509,12.667,-2.814
