x,y,z
-8.491,8.128,-2.414
-9.106,7.892,-2.356
-9.709,7.661,-2.297
-10.353,7.442,-2.235
-11.017,7.28,-2.181
-11.679,7.221,-2.142
-12.328,7.283,-2.125
-12.98,7.409,-2.118
-13.647,7.535,-2.111
-14.318,7.647,-2.102
-14.988,7.753,-2.093
-15.646,7.863,-2.085
-16.288,7.998,-2.082
-16.909,8.178,-2.088
-17.532,8.408,-2.103
-18.15,8.663,-2.123
-18.744,8.918,-2.143
-19.338,9.173,-2.162
-19.932,9.428,-2.181
-20.526,9.682,-2.2
-21.121,9.936,-2.217
-21.715,10.19,-2.234
-22.309,10.444,-2.25
-22.904,10.698,-2.264
-23.498,10.952,-2.278
-24.092,11.205,-2.29
-24.686,11.459,-2.301
-25.281,11.713,-2.311
-25.875,11.967,-2.32
-26.469,12.221,-2.326
-27.064,12.475,-2.332
-27.658,12.728,-2.336
-28.249,12.981,-2.339
-28.851,13.238,-2.34
-29.448,13.457,-2.338
-30.085,13.588,-2.331
-30.731,13.615,-2.32
-31.384,13.589,-2.307
-32.03,13.641,-2.297
-32.659,13.796,-2.292
-33.254,14.051,-2.29
-33.8,14.399,-2.29
-34.283,14.831,-2.291
-34.69,15.335,-2.291
-35.01,15.898,-2.29
-35.234,16.506,-2.289
-35.358,17.142,-2.29
-35.377,17.789,-2.295
-35.291,18.431,-2.305
-35.102,19.051,-2.32
-34.816,19.632,-2.339
-34.44,20.159,-2.36
-33.983,20.618,-2.38
-33.458,20.998,-2.397
-32.879,21.287,-2.41
-32.26,21.479,-2.42
-31.619,21.569,-2.427
-30.971,21.553,-2.432
-30.335,21.434,-2.436
-29.726,21.213,-2.439
-29.161,20.896,-2.441
-28.654,20.492,-2.441
-28.221,20.024,-2.44
-27.773,19.538,-2.44
-27.261,19.131,-2.443
-26.636,18.807,-2.451
-25.951,18.491,-2.46
-25.212,18.156,-2.473
-24.615,17.888,-2.483
-24.036,17.63,-2.495
-23.45,17.371,-2.506
-22.859,17.109,-2.519
-22.269,16.848,-2.531
-21.679,16.588,-2.544
-21.089,16.328,-2.557
-20.499,16.069,-2.57
-19.91,15.81,-2.583
-19.322,15.553,-2.595
-18.736,15.299,-2.607
-18.152,15.049,-2.618
-17.568,14.805,-2.629
-16.978,14.568,-2.64
-16.383,14.338,-2.65
-15.759,14.113,-2.66
-15.113,13.899,-2.671
-14.461,13.708,-2.681
-13.796,13.544,-2.693
-13.133,13.422,-2.705
-12.477,13.36,-2.718
-11.832,13.379,-2.734
-11.185,13.488,-2.751
-10.533,13.665,-2.769
-9.906,13.873,-2.787
-9.306,14.09,-2.802
-8.712,14.335,-2.817
-8.138,14.672,-2.831
-7.628,15.1,-2.841
-7.196,15.607,-2.848
-6.847,16.162,-2.85
-6.483,16.694,-2.85
-6.045,17.159,-2.852
-5.538,17.547,-2.855
-4.976,17.85,-2.86
-4.372,18.059,-2.867
-3.743,18.17,-2.877
-3.105,18.178,-2.89
-2.473,18.085,-2.904
-1.864,17.893,-2.92
-1.294,17.606,-2.936
-0.777,17.231,-2.951
-0.326,16.779,-2.964
0.048,16.261,-2.976
0.333,15.69,-2.986
0.524,15.08,-2.993
0.616,14.448,-2.997
0.606,13.81,-2.998
0.494,13.181,-2.993
0.283,12.578,-2.982
-0.021,12.017,-2.965
-0.411,11.511,-2.941
-0.877,11.074,-2.914
-1.406,10.717,-2.884
-1.985,10.448,-2.854
-2.6,10.275,-2.826
-3.234,10.203,-2.804
-3.872,10.232,-2.788
-4.497,10.363,-2.779
-5.119,10.565,-2.775
-5.767,10.71,-2.766
-6.432,10.745,-2.75
-7.105,10.665,-2.725
-7.771,10.464,-2.691
-8.4,10.243,-2.654
-9.035,10.007,-2.613
-9.658,9.776,-2.57
-10.304,9.552,-2.525
-10.946,9.371,-2.482
-11.583,9.274,-2.448
-12.222,9.284,-2.427
-12.861,9.365,-2.415
-13.518,9.475,-2.406
-14.188,9.594,-2.398
-14.862,9.722,-2.391
-15.52,9.867,-2.387
-16.152,10.039,-2.387
-16.786,10.247,-2.392
-17.427,10.488,-2.399
-18.04,10.736,-2.408
-18.631,10.986,-2.416
-19.224,11.241,-2.425
-19.818,11.498,-2.432
-20.411,11.754,-2.438
-21.004,12.011,-2.443
-21.597,12.268,-2.446
-22.189,12.526,-2.449
-22.782,12.783,-2.45
-23.375,13.041,-2.449
-23.967,13.299,-2.448
-24.56,13.556,-2.445
-25.153,13.814,-2.442
-25.746,14.071,-2.437
-26.339,14.329,-2.431
-27.305,14.748,-2.419
