-17.5 13 2.44346
-16.9898 12.6885 2.74346
-14.7771 13.1414 -2.33972
-15.1943 12.7102 -2.33972
-15.7399 11.058 -1.43972
-15.6614 10.4632 -1.43972
-16.207 8.81106 -2.33972
-18.4197 8.35822 2.74346
-20.0789 9.05607 2.74346
-20.9844 9.8159 2.14346
-22.2849 11.833 2.14346
-22.6803 12.2813 2.44346
-23.5995 13.0527 2.44346
-23.629 13.0769 2.46255
-25.9162 14.9229 2.46255
