x,y,z
-6.022,9.088,-2.712
-6.695,9.001,-2.688
-7.331,8.918,-2.664
-7.977,8.834,-2.639
-8.623,8.750,-2.614
-9.269,8.666,-2.588
-9.915,8.582,-2.561
-10.561,8.498,-2.532
-11.208,8.414,-2.504
-11.854,8.330,-2.474
-12.500,8.246,-2.443
-13.146,8.161,-2.411
-13.792,8.077,-2.379
-14.438,7.994,-2.345
-15.101,7.914,-2.311
-15.780,7.853,-2.278
-16.449,7.845,-2.251
-17.114,7.901,-2.234
-17.769,7.993,-2.223
-18.437,8.096,-2.213
-19.107,8.200,-2.204
-19.777,8.305,-2.195
-20.435,8.415,-2.188
-21.084,8.546,-2.184
-21.729,8.727,-2.189
-22.352,8.969,-2.203
-22.959,9.243,-2.222
-23.541,9.516,-2.241
-24.120,9.790,-2.259
-24.700,10.064,-2.277
-25.279,10.338,-2.294
-25.858,10.612,-2.309
-26.437,10.886,-2.323
-27.016,11.161,-2.336
-27.595,11.436,-2.348
-28.174,11.710,-2.358
-28.753,11.985,-2.367
-29.332,12.260,-2.374
-29.911,12.535,-2.380
-30.490,12.809,-2.384
-31.069,13.084,-2.386
-31.646,13.358,-2.388
-32.219,13.630,-2.387
-32.830,13.852,-2.383
-33.422,14.137,-2.381
-33.939,14.542,-2.381
-34.357,15.049,-2.382
-34.656,15.634,-2.383
-34.822,16.269,-2.384
-34.847,16.925,-2.386
-34.731,17.572,-2.390
-34.478,18.178,-2.397
-34.101,18.716,-2.406
-33.617,19.160,-2.416
-33.049,19.490,-2.426
-32.424,19.689,-2.436
-31.769,19.750,-2.444
-31.118,19.668,-2.452
-30.504,19.442,-2.460
-29.916,19.095,-2.469
-29.312,18.788,-2.479
-28.690,18.489,-2.491
-28.114,18.212,-2.502
-27.537,17.935,-2.514
-26.960,17.658,-2.527
-26.383,17.381,-2.540
-25.807,17.104,-2.554
-25.230,16.827,-2.567
-24.654,16.551,-2.581
-24.079,16.276,-2.594
-23.505,16.003,-2.606
-22.910,15.722,-2.619
-22.283,15.435,-2.632
-21.670,15.165,-2.643
-21.059,14.914,-2.654
-20.415,14.673,-2.665
-19.784,14.463,-2.675
-19.147,14.284,-2.686
-18.476,14.130,-2.697
-17.805,14.015,-2.709
-17.134,13.941,-2.722
-16.452,13.903,-2.735
-15.784,13.898,-2.749
-15.142,13.919,-2.763
-14.494,13.961,-2.778
-13.839,14.019,-2.793
-13.189,14.089,-2.807
-12.549,14.166,-2.822
-11.909,14.248,-2.836
-11.267,14.333,-2.850
-10.623,14.418,-2.864
-9.979,14.504,-2.878
-9.335,14.591,-2.892
-8.692,14.677,-2.905
-8.051,14.763,-2.918
-7.412,14.849,-2.931
-6.782,14.934,-2.943
-6.131,15.025,-2.956
-5.476,15.196,-2.969
-4.880,15.499,-2.981
-4.351,15.892,-2.991
-3.807,16.227,-3.000
-3.197,16.442,-3.011
-2.554,16.520,-3.022
-1.910,16.459,-3.035
-1.294,16.260,-3.047
-0.735,15.933,-3.057
-0.260,15.494,-3.064
0.110,14.963,-3.066
0.357,14.364,-3.063
0.469,13.727,-3.053
0.442,13.080,-3.037
0.276,12.454,-3.015
-0.021,11.879,-2.990
-0.435,11.381,-2.962
-0.946,10.984,-2.935
-1.530,10.706,-2.910
-2.161,10.560,-2.890
-2.808,10.553,-2.877
-3.442,10.686,-2.871
-4.039,10.921,-2.871
-4.665,11.105,-2.867
-5.299,11.140,-2.856
-5.959,11.084,-2.840
-6.641,10.998,-2.821
-7.332,10.905,-2.801
-7.975,10.819,-2.782
-8.620,10.732,-2.762
-9.266,10.646,-2.742
-9.911,10.560,-2.721
-10.557,10.474,-2.700
-11.203,10.388,-2.678
-11.848,10.303,-2.655
-12.494,10.218,-2.632
-13.140,10.133,-2.608
-13.783,10.050,-2.584
-14.421,9.973,-2.560
-15.078,9.909,-2.536
-15.748,9.868,-2.513
-16.399,9.864,-2.494
-17.052,9.902,-2.479
-17.701,9.970,-2.468
-18.344,10.058,-2.458
-18.995,10.160,-2.450
-19.655,10.279,-2.444
-20.307,10.421,-2.440
-20.929,10.592,-2.440
-21.545,10.804,-2.444
-22.169,11.055,-2.450
-22.797,11.332,-2.458
-23.400,11.612,-2.466
-23.979,11.886,-2.472
-24.556,12.160,-2.478
-25.134,12.436,-2.482
-25.712,12.712,-2.484
-26.289,12.988,-2.486
-26.867,13.265,-2.485
-27.444,13.542,-2.484
-28.022,13.819,-2.481
-28.600,14.096,-2.477
-29.177,14.374,-2.472
-29.755,14.651,-2.466
-30.332,14.929,-2.459
-31.353,15.420,-2.444
