x,y,z
-6.288,13.471,-2.908
-7.283,13.662,-2.892
-8.277,13.853,-2.876
-9.272,14.044,-2.860
-10.266,14.235,-2.844
-11.261,14.426,-2.829
-12.255,14.617,-2.813
-13.250,14.808,-2.798
-14.244,14.999,-2.782
-15.239,15.190,-2.767
-16.233,15.381,-2.752
-17.228,15.572,-2.736
-18.222,15.763,-2.721
-19.217,15.954,-2.705
-20.211,16.146,-2.689
-21.206,16.337,-2.674
-22.200,16.528,-2.658
-23.195,16.719,-2.642
-24.189,16.910,-2.625
-25.184,17.101,-2.609
-26.178,17.292,-2.592
-27.173,17.483,-2.575
-28.455,18.066,-2.563
-29.330,19.170,-2.568
-29.897,19.998,-2.566
-30.705,20.592,-2.552
-31.663,20.886,-2.530
-32.665,20.849,-2.507
-33.599,20.483,-2.485
-34.360,19.830,-2.462
-34.863,18.962,-2.437
-35.052,17.977,-2.409
-34.906,16.985,-2.379
-34.442,16.097,-2.352
-33.710,15.411,-2.335
-32.793,15.005,-2.334
-31.794,14.923,-2.353
-30.823,15.175,-2.389
-29.990,15.734,-2.438
-28.768,16.435,-2.498
-27.169,16.465,-2.537
-26.367,16.311,-2.549
-25.372,16.120,-2.564
-24.378,15.929,-2.579
-23.383,15.738,-2.594
-22.389,15.547,-2.609
-21.394,15.356,-2.623
-20.400,15.165,-2.638
-19.405,14.974,-2.652
-18.411,14.783,-2.666
-17.416,14.592,-2.681
-16.422,14.401,-2.695
-15.427,14.210,-2.709
-14.433,14.019,-2.723
-13.438,13.828,-2.738
-12.444,13.637,-2.752
-11.449,13.446,-2.767
-10.454,13.255,-2.782
-9.460,13.064,-2.797
-8.466,12.873,-2.812
-7.471,12.682,-2.828
-6.672,12.528,-2.840
-5.264,12.593,-2.885
-4.042,13.294,-2.961
-3.208,13.852,-3.014
-2.238,14.104,-3.054
-1.238,14.022,-3.077
-0.321,13.615,-3.083
0.410,12.928,-3.069
0.874,12.039,-3.033
1.019,11.047,-2.979
0.829,10.062,-2.908
0.325,9.195,-2.830
-0.436,8.543,-2.753
-1.370,8.177,-2.689
-2.372,8.141,-2.648
-3.331,8.436,-2.639
-4.138,9.031,-2.661
-4.704,9.859,-2.709
-5.578,10.964,-2.765
-7.055,11.586,-2.766
-7.659,11.704,-2.757
-8.653,11.898,-2.742
-9.647,12.091,-2.727
-10.641,12.284,-2.712
-11.635,12.476,-2.698
-12.630,12.667,-2.684
-13.624,12.859,-2.671
-14.619,13.050,-2.657
-15.613,13.241,-2.644
-16.608,13.431,-2.631
-17.602,13.622,-2.617
-18.597,13.813,-2.604
-19.592,14.003,-2.591
-20.586,14.193,-2.578
-21.581,14.383,-2.565
-22.576,14.573,-2.552
-23.570,14.763,-2.538
-24.565,14.953,-2.525
-25.560,15.142,-2.512
-26.555,15.331,-2.498
-27.166,15.448,-2.490
-28.449,16.029,-2.488
-29.326,17.132,-2.513
-29.894,17.958,-2.527
-30.703,18.551,-2.523
-31.662,18.844,-2.508
-32.664,18.805,-2.484
-33.597,18.438,-2.454
-34.357,17.783,-2.419
-34.859,16.915,-2.377
-35.046,15.930,-2.331
-34.899,14.938,-2.282
-34.433,14.050,-2.239
-33.700,13.365,-2.209
-32.782,12.961,-2.201
-31.782,12.881,-2.218
-30.812,13.135,-2.259
-29.980,13.695,-2.318
-28.759,14.399,-2.393
-27.162,14.432,-2.433
-26.741,14.352,-2.438
-25.746,14.164,-2.450
-24.751,13.975,-2.462
-23.757,13.787,-2.474
-22.762,13.598,-2.486
-21.767,13.409,-2.498
-20.772,13.220,-2.510
-19.778,13.030,-2.522
-18.783,12.840,-2.534
-17.789,12.650,-2.546
-16.794,12.460,-2.558
-15.800,12.269,-2.571
-14.805,12.078,-2.583
-13.811,11.887,-2.596
-12.817,11.695,-2.609
-11.823,11.503,-2.622
-10.829,11.310,-2.635
-9.836,11.117,-2.649
-8.843,10.923,-2.664
-7.850,10.728,-2.678
-7.437,10.646,-2.685
-6.029,10.706,-2.732
-4.803,11.403,-2.820
-3.968,11.957,-2.882
-2.996,12.206,-2.927
-1.997,12.120,-2.951
-1.081,11.709,-2.954
-0.353,11.020,-2.933
0.108,10.129,-2.889
0.249,9.136,-2.823
0.055,8.152,-2.740
-0.452,7.287,-2.649
-1.217,6.637,-2.561
-2.152,6.276,-2.488
-3.155,6.243,-2.444
-4.112,6.543,-2.435
-4.917,7.141,-2.462
-5.480,7.971,-2.520
-6.349,9.080,-2.590
-8.042,9.752,-2.593
-9.034,9.949,-2.578
-10.026,10.145,-2.565
-11.018,10.339,-2.551
-12.011,10.533,-2.538
-13.004,10.726,-2.526
-13.998,10.918,-2.513
-14.991,11.110,-2.501
-15.985,11.301,-2.490
-16.980,11.491,-2.478
-17.974,11.681,-2.467
-18.968,11.871,-2.456
-19.963,12.060,-2.445
-20.957,12.249,-2.434
-21.952,12.437,-2.423
-22.947,12.625,-2.412
-23.941,12.813,-2.401
-24.936,13.000,-2.391
-25.931,13.187,-2.380
-27.158,13.417,-2.366
-28.444,13.994,-2.375
-29.324,15.095,-2.420
-29.895,15.920,-2.449
-30.706,16.510,-2.456
-31.666,16.801,-2.446
-32.668,16.758,-2.421
-33.600,16.388,-2.385
-34.358,15.731,-2.337
-34.857,14.861,-2.279
-35.041,13.876,-2.214
-34.891,12.884,-2.147
-34.421,11.998,-2.086
-33.686,11.315,-2.044
-32.767,10.913,-2.028
-31.767,10.837,-2.044
-30.798,11.094,-2.091
-29.968,11.657,-2.161
-28.749,12.365,-2.249
-27.109,12.395,-2.291
-26.114,12.211,-2.301
-25.119,12.026,-2.311
-24.125,11.840,-2.320
-23.130,11.654,-2.330
-22.135,11.467,-2.339
-21.141,11.279,-2.349
-20.147,11.091,-2.359
-19.152,10.903,-2.369
-18.158,10.714,-2.379
-17.165,10.524,-2.390
-16.171,10.334,-2.401
-15.178,10.143,-2.412
-14.185,9.951,-2.423
-13.192,9.758,-2.435
-12.200,9.564,-2.447
-11.208,9.369,-2.459
-10.217,9.174,-2.472
-9.226,8.976,-2.486
-8.200,8.771,-2.501
-6.791,8.825,-2.553
-5.562,9.516,-2.653
-4.724,10.067,-2.725
-3.751,10.311,-2.775
-2.752,10.221,-2.800
-1.839,9.806,-2.800
-1.113,9.114,-2.773
-0.656,8.221,-2.719
-0.519,7.227,-2.641
-0.718,6.244,-2.545
-1.229,5.381,-2.441
-1.996,4.735,-2.341
-2.934,4.378,-2.259
-3.936,4.350,-2.210
-4.892,4.654,-2.202
-5.694,5.256,-2.235
-6.253,6.089,-2.303
-7.118,7.202,-2.387
-8.580,7.835,-2.398
-9.420,8.005,-2.386
-10.409,8.204,-2.373
-11.399,8.401,-2.360
-12.389,8.596,-2.348
-13.380,8.791,-2.336
-14.372,8.984,-2.325
-15.364,9.176,-2.314
-16.357,9.367,-2.304
-17.350,9.558,-2.294
-18.343,9.747,-2.284
-19.336,9.936,-2.275
-20.330,10.124,-2.265
-21.324,10.311,-2.256
-22.318,10.497,-2.248
-23.312,10.683,-2.239
-24.306,10.868,-2.230
-25.301,11.052,-2.222
-26.296,11.236,-2.214
-27.151,11.393,-2.206
-28.439,11.965,-2.224
-29.323,13.063,-2.289
-29.897,13.886,-2.333
-30.710,14.473,-2.352
-31.671,14.760,-2.346
-32.673,14.714,-2.320
-33.604,14.341,-2.276
-34.359,13.681,-2.216
-34.855,12.809,-2.142
-35.036,11.823,-2.058
-34.882,10.832,-1.972
-34.409,9.947,-1.895
-33.672,9.267,-1.840
-32.751,8.869,-1.817
-31.751,8.796,-1.833
-30.782,9.057,-1.885
-29.954,9.623,-1.966
-28.738,10.335,-2.069
-27.148,10.381,-2.112
-26.476,10.260,-2.117
-25.482,10.079,-2.125
-24.487,9.897,-2.132
-23.493,9.714,-2.140
-22.500,9.530,-2.148
-21.506,9.345,-2.156
-20.513,9.159,-2.164
-19.520,8.972,-2.172
-18.527,8.784,-2.181
-17.535,8.595,-2.190
-16.543,8.405,-2.199
-15.551,8.213,-2.209
-14.560,8.021,-2.219
-13.570,7.827,-2.230
-12.581,7.631,-2.241
-11.592,7.434,-2.253
-10.604,7.235,-2.266
-9.617,7.034,-2.279
-8.961,6.899,-2.288
-7.552,6.947,-2.345
-6.321,7.634,-2.458
-5.480,8.182,-2.540
-4.507,8.423,-2.596
-3.508,8.329,-2.623
-2.596,7.911,-2.620
-1.873,7.216,-2.587
-1.419,6.321,-2.523
-1.286,5.327,-2.433
-1.488,4.344,-2.323
-2.003,3.483,-2.205
-2.772,2.840,-2.092
-3.711,2.486,-2.032
-4.714,2.462,-1.982
-5.669,2.770,-1.940
-6.469,3.375,-1.978
-7.025,4.210,-2.057
-7.885,5.327,-2.154
-9.341,5.965,-2.170
-9.816,6.064,-2.164
-10.800,6.267,-2.151
-11.786,6.468,-2.139
-12.772,6.667,-2.127
-13.760,6.864,-2.116
-14.748,7.059,-2.106
-15.737,7.252,-2.096
-16.728,7.444,-2.087
-17.718,7.634,-2.078
-18.710,7.823,-2.070
-19.701,8.010,-2.061
-20.694,8.196,-2.054
-21.686,8.381,-2.046
-22.679,8.565,-2.039
-23.672,8.747,-2.032
-24.665,8.927,-2.026
-25.659,9.107,-2.019
-26.652,9.284,-2.013
