Time,stamp.secs,stamp.nsecs,ang,vel,light
1631044108.275197,1631044108,266912167,-19.999999645858814,40.0,1
1631044108.275226,1631044108,268794868,0.0,0.0,2
1631044108.3500712,1631044108,348468639,nan,40.0,1
1631044108.3541546,1631044108,353654410,0.0,0.0,2
1631044108.3966267,1631044108,395769522,nan,40.0,1
1631044108.4002013,1631044108,398430652,0.0,0.0,2
1631044108.4494557,1631044108,446990039,nan,40.0,1
1631044108.4497764,1631044108,449138840,0.0,0.0,2
1631044108.4759512,1631044108,475188930,-19.999999645858814,40.0,1
1631044108.4799507,1631044108,478289268,0.0,0.0,2
1631044108.5334554,1631044108,532552748,nan,40.0,1
1631044108.5440722,1631044108,543435866,0.0,0.0,2
1631044108.5836112,1631044108,583142693,nan,40.0,1
1631044108.586821,1631044108,586381393,0.0,0.0,2
1631044108.6296008,1631044108,626769532,nan,40.0,1
1631044108.6368048,1631044108,635641711,0.0,0.0,2
1631044108.6684542,1631044108,667781488,nan,40.0,1
1631044108.6735065,1631044108,673081248,0.0,0.0,2
1631044108.7265801,1631044108,722234700,nan,40.0,1
1631044108.7266262,1631044108,723971415,0.0,0.0,2
1631044108.772342,1631044108,771205795,nan,40.0,1
1631044108.7753882,1631044108,774842084,0.0,0.0,2
1631044108.8013644,1631044108,800814306,nan,40.0,1
1631044108.8057218,1631044108,805070662,0.0,0.0,2
1631044108.8264008,1631044108,825577265,0.0,0.0,1
1631044108.8511093,1631044108,850063875,0.0,0.0,1
1631044108.865359,1631044108,864064204,0.0,0.0,1
1631044108.8857126,1631044108,883606897,0.0,0.0,1
1631044108.9056506,1631044108,904188118,0.0,0.0,1
1631044108.9251459,1631044108,923563575,0.0,0.0,1
1631044108.9507048,1631044108,943544102,0.0,0.0,1
1631044108.9655542,1631044108,963571249,0.0,0.0,1
1631044108.98416,1631044108,983542901,0.0,0.0,1
1631044109.0052786,1631044109,3530427,0.0,0.0,1
1631044109.0349393,1631044109,23578948,0.0,0.0,1
1631044109.04465,1631044109,43520603,0.0,0.0,1
1631044109.0652034,1631044109,63603870,0.0,0.0,1
1631044109.0847926,1631044109,83525902,0.0,0.0,1
1631044109.105298,1631044109,103546175,0.0,0.0,1
1631044109.125772,1631044109,123582571,0.0,0.0,1
1631044109.1447852,1631044109,143543724,0.0,0.0,1
1631044109.1642973,1631044109,163587245,0.0,0.0,1
1631044109.1842775,1631044109,183538025,0.0,0.0,1
1631044109.2043006,1631044109,203550048,0.0,0.0,1
1631044109.2384977,1631044109,223583445,0.0,0.0,1
1631044109.2449248,1631044109,243542098,0.0,0.0,1
1631044109.2770975,1631044109,263598868,0.0,0.0,1
1631044109.286315,1631044109,283559396,0.0,0.0,1
1631044109.3042817,1631044109,303535798,0.0,0.0,1
1631044109.3264887,1631044109,323566445,0.0,0.0,1
1631044109.3450603,1631044109,343527974,0.0,0.0,1
1631044109.3652594,1631044109,363541747,0.0,0.0,1
1631044109.3855655,1631044109,383567894,0.0,0.0,1
1631044109.4053874,1631044109,403546421,0.0,0.0,1
1631044109.4280894,1631044109,423604691,0.0,0.0,1
1631044109.4450002,1631044109,443688084,0.0,0.0,1
1631044109.4645307,1631044109,463563496,0.0,0.0,1
1631044109.4858222,1631044109,483609142,0.0,0.0,1
1631044109.5049028,1631044109,503632915,0.0,0.0,1
1631044109.5263402,1631044109,523792801,0.0,0.0,1
1631044109.5444734,1631044109,543532850,0.0,0.0,1
1631044109.5656738,1631044109,563984959,0.0,0.0,1
1631044109.5851767,1631044109,583670139,0.0,0.0,1
1631044109.6049504,1631044109,603536427,0.0,0.0,1
1631044109.6281455,1631044109,623564825,0.0,0.0,1
1631044109.6447659,1631044109,643555601,0.0,0.0,1
1631044109.6646392,1631044109,663580999,0.0,0.0,1
1631044109.6856174,1631044109,683525405,0.0,0.0,1
1631044109.7049496,1631044109,703560052,0.0,0.0,1
1631044109.7345214,1631044109,725627511,0.0,0.0,1
1631044109.7444448,1631044109,743529356,0.0,0.0,1
1631044109.7646618,1631044109,763579002,0.0,0.0,1
1631044109.7844455,1631044109,783521033,0.0,0.0,1
1631044109.805108,1631044109,803538182,0.0,0.0,1
1631044109.825144,1631044109,823607826,0.0,0.0,1
1631044109.8441238,1631044109,843536233,0.0,0.0,1
1631044109.8641734,1631044109,863603752,0.0,0.0,1
1631044109.884295,1631044109,883527035,0.0,0.0,1
1631044109.9046001,1631044109,903556182,0.0,0.0,1
1631044109.9254918,1631044109,923581456,0.0,0.0,1
1631044109.94431,1631044109,943533236,0.0,0.0,1
1631044109.9646232,1631044109,963583131,0.0,0.0,1
1631044109.9844706,1631044109,983588032,0.0,0.0,1
1631044110.0047607,1631044110,3551060,0.0,0.0,1
1631044110.0261905,1631044110,23599831,0.0,0.0,1
1631044110.0444705,1631044110,43540612,0.0,0.0,1
1631044110.0646772,1631044110,63564136,0.0,0.0,1
1631044110.0853128,1631044110,83550288,0.0,0.0,1
1631044110.104856,1631044110,103592809,0.0,0.0,1
1631044110.1289837,1631044110,123554088,0.0,0.0,1
1631044110.1445072,1631044110,143556238,0.0,0.0,1
1631044110.1642156,1631044110,163556764,0.0,0.0,1
1631044110.184339,1631044110,183543166,0.0,0.0,1
1631044110.2047346,1631044110,203559190,0.0,0.0,1
1631044110.2264135,1631044110,223632458,0.0,0.0,1
1631044110.2452202,1631044110,243534743,0.0,0.0,1
1631044110.264622,1631044110,263571640,0.0,0.0,1
1631044110.2870183,1631044110,283546043,0.0,0.0,1
1631044110.3054044,1631044110,303536194,0.0,0.0,1
1631044110.3270185,1631044110,323799446,0.0,0.0,1
1631044110.344093,1631044110,343543745,0.0,0.0,1
1631044110.3782463,1631044110,363635262,0.0,0.0,1
1631044110.38528,1631044110,383555920,0.0,0.0,1
1631044110.4052749,1631044110,403753052,0.0,0.0,1
1631044110.4254763,1631044110,423582458,0.0,0.0,1
1631044110.4445465,1631044110,443533302,0.0,0.0,1
1631044110.4653678,1631044110,463671628,0.0,0.0,1
1631044110.4841242,1631044110,483530481,0.0,0.0,1
1631044110.5042899,1631044110,503542070,0.0,0.0,1
1631044110.5247574,1631044110,523563407,0.0,0.0,1
1631044110.5444138,1631044110,543525125,0.0,0.0,1
1631044110.5653908,1631044110,564005169,0.0,0.0,1
1631044110.5844142,1631044110,583524054,0.0,0.0,1
1631044110.604549,1631044110,603536643,0.0,0.0,1
1631044110.6302094,1631044110,623597976,0.0,0.0,1
1631044110.6446488,1631044110,643552320,0.0,0.0,1
1631044110.665317,1631044110,663587031,0.0,0.0,1
1631044110.6852365,1631044110,683527877,0.0,0.0,1
1631044110.7044375,1631044110,703568962,0.0,0.0,1
1631044110.730411,1631044110,728091245,0.0,0.0,1
1631044110.7445405,1631044110,743554643,0.0,0.0,1
1631044110.764421,1631044110,763576105,0.0,0.0,1
1631044110.784469,1631044110,783521950,0.0,0.0,1
1631044110.805008,1631044110,803539163,0.0,0.0,1
1631044110.8266306,1631044110,823588122,0.0,0.0,1
1631044110.8450143,1631044110,843534842,0.0,0.0,1
1631044110.86522,1631044110,863579677,0.0,0.0,1
1631044110.8849723,1631044110,883510023,0.0,0.0,1
1631044110.9048383,1631044110,903556108,0.0,0.0,1
1631044110.9261227,1631044110,923566322,0.0,0.0,1
1631044110.9496565,1631044110,943534790,0.0,0.0,1
1631044110.9650855,1631044110,963573875,0.0,0.0,1
1631044110.9852326,1631044110,983539968,0.0,0.0,1
1631044111.0054026,1631044111,3541807,0.0,0.0,1
1631044111.035778,1631044111,23599141,0.0,0.0,1
1631044111.0450392,1631044111,43551985,0.0,0.0,1
1631044111.0647542,1631044111,63585947,0.0,0.0,1
1631044111.0853,1631044111,83587161,0.0,0.0,1
1631044111.1053655,1631044111,103565628,0.0,0.0,1
1631044111.12558,1631044111,124161785,0.0,0.0,1
1631044111.144495,1631044111,143530810,0.0,0.0,1
1631044111.165038,1631044111,163658012,0.0,0.0,1
1631044111.1847131,1631044111,183522115,0.0,0.0,1
1631044111.2051477,1631044111,203549827,0.0,0.0,1
1631044111.224992,1631044111,223607286,0.0,0.0,1
1631044111.2447288,1631044111,243541131,0.0,0.0,1
1631044111.2653487,1631044111,263794072,0.0,0.0,1
1631044111.2855237,1631044111,283622678,0.0,0.0,1
1631044111.3047345,1631044111,303551649,0.0,0.0,1
1631044111.3266017,1631044111,323585985,0.0,0.0,1
1631044111.344265,1631044111,343525830,0.0,0.0,1
1631044111.364736,1631044111,363562167,0.0,0.0,1
1631044111.3843207,1631044111,383521135,0.0,0.0,1
1631044111.4050393,1631044111,403569220,0.0,0.0,1
1631044111.427963,1631044111,424097893,0.0,0.0,1
1631044111.4451067,1631044111,443542344,0.0,0.0,1
1631044111.4650145,1631044111,463565116,0.0,0.0,1
1631044111.4860706,1631044111,483539143,0.0,0.0,1
1631044111.5069084,1631044111,503587162,0.0,0.0,1
1631044111.5267968,1631044111,523579062,0.0,0.0,1
1631044111.5450327,1631044111,543535590,0.0,0.0,1
1631044111.567358,1631044111,563596484,0.0,0.0,1
1631044111.5860336,1631044111,583984597,0.0,0.0,1
1631044111.6047876,1631044111,603680900,0.0,0.0,1
1631044111.6332593,1631044111,623591682,0.0,0.0,1
1631044111.644543,1631044111,643538086,0.0,0.0,1
1631044111.66481,1631044111,663588856,0.0,0.0,1
1631044111.6858256,1631044111,683521761,0.0,0.0,1
1631044111.7051187,1631044111,703541659,0.0,0.0,1
1631044111.7354186,1631044111,723968768,0.0,0.0,1
1631044111.745286,1631044111,743541582,0.0,0.0,1
1631044111.7655613,1631044111,763592601,0.0,0.0,1
1631044111.7849088,1631044111,783537506,0.0,0.0,1
1631044111.80709,1631044111,803551279,0.0,0.0,1
1631044111.8384469,1631044111,823595049,0.0,0.0,1
1631044111.844988,1631044111,843563576,0.0,0.0,1
1631044111.8655632,1631044111,864109925,0.0,0.0,1
1631044111.8853726,1631044111,883524253,0.0,0.0,1
1631044111.9073312,1631044111,903537901,0.0,0.0,1
1631044111.924854,1631044111,923914390,0.0,0.0,1
1631044111.950104,1631044111,943524826,0.0,0.0,1
1631044111.96566,1631044111,963554972,0.0,0.0,1
1631044111.984473,1631044111,983553121,0.0,0.0,1
1631044112.0042884,1631044112,3547771,0.0,0.0,1
1631044112.0305088,1631044112,23611414,0.0,0.0,1
1631044112.0442402,1631044112,43535946,0.0,0.0,1
1631044112.0651784,1631044112,63592090,0.0,0.0,1
1631044112.0846968,1631044112,83506622,0.0,0.0,1
1631044112.1049473,1631044112,103541143,0.0,0.0,1
1631044112.1266327,1631044112,123597037,0.0,0.0,1
1631044112.1448872,1631044112,143538816,0.0,0.0,1
1631044112.1649342,1631044112,163565088,0.0,0.0,1
1631044112.1847272,1631044112,183641980,0.0,0.0,1
1631044112.2053554,1631044112,203532015,0.0,0.0,1
1631044112.2323642,1631044112,223605157,0.0,0.0,1
1631044112.2448554,1631044112,243551561,0.0,0.0,1
1631044112.2645345,1631044112,263577958,0.0,0.0,1
1631044112.2856145,1631044112,283522487,0.0,0.0,1
1631044112.304787,1631044112,303627252,0.0,0.0,1
1631044112.3290827,1631044112,324131854,0.0,0.0,1
1631044112.3560164,1631044112,343566056,0.0,0.0,1
1631044112.3646185,1631044112,363577329,0.0,0.0,1
1631044112.3845,1631044112,383571104,0.0,0.0,1
1631044112.4047005,1631044112,403563879,0.0,0.0,1
1631044112.429468,1631044112,423603149,0.0,0.0,1
1631044112.445295,1631044112,443532055,0.0,0.0,1
1631044112.4645817,1631044112,463590574,0.0,0.0,1
1631044112.485401,1631044112,483537103,0.0,0.0,1
1631044112.5044093,1631044112,503568125,0.0,0.0,1
1631044112.525758,1631044112,523922866,0.0,0.0,1
1631044112.5443444,1631044112,543535427,0.0,0.0,1
1631044112.564729,1631044112,563585446,0.0,0.0,1
1631044112.5842798,1631044112,583548099,0.0,0.0,1
1631044112.6049798,1631044112,603553623,0.0,0.0,1
1631044112.631154,1631044112,624382196,0.0,0.0,1
1631044112.6461668,1631044112,643894265,0.0,0.0,1
1631044112.6650274,1631044112,663581943,0.0,0.0,1
1631044112.6851609,1631044112,683572469,0.0,0.0,1
1631044112.7044828,1631044112,703555369,0.0,0.0,1
1631044112.7289882,1631044112,723573767,0.0,0.0,1
1631044112.744659,1631044112,743543794,0.0,0.0,1
1631044112.7647862,1631044112,763569691,0.0,0.0,1
1631044112.784341,1631044112,783522345,0.0,0.0,1
1631044112.8051689,1631044112,803727475,0.0,0.0,1
1631044112.8350663,1631044112,824376189,0.0,0.0,1
1631044112.8444922,1631044112,843537166,0.0,0.0,1
1631044112.8642216,1631044112,863571313,0.0,0.0,1
1631044112.8849957,1631044112,883522466,0.0,0.0,1
1631044112.9054193,1631044112,903545864,0.0,0.0,1
1631044112.9268963,1631044112,923734870,0.0,0.0,1
1631044112.9526994,1631044112,943537538,0.0,0.0,1
1631044112.9657736,1631044112,963565685,0.0,0.0,1
1631044112.9847157,1631044112,983550586,0.0,0.0,1
1631044113.0048878,1631044113,3556359,0.0,0.0,1
1631044113.0327682,1631044113,23613128,0.0,0.0,1
1631044113.0490868,1631044113,44053112,0.0,0.0,1
1631044113.0685534,1631044113,63622176,0.0,0.0,1
1631044113.0852945,1631044113,83546708,0.0,0.0,1
1631044113.1046963,1631044113,103572854,0.0,0.0,1
1631044113.1267838,1631044113,123610875,0.0,0.0,1
1631044113.146217,1631044113,143655895,0.0,0.0,1
1631044113.164751,1631044113,163606049,0.0,0.0,1
1631044113.1844974,1631044113,183577326,0.0,0.0,1
1631044113.2047062,1631044113,203574226,0.0,0.0,1
1631044113.2386093,1631044113,228531667,0.0,0.0,1
1631044113.248443,1631044113,243591523,0.0,0.0,1
1631044113.2825136,1631044113,277698117,0.0,0.0,1
1631044113.285224,1631044113,283574448,0.0,0.0,1
1631044113.304824,1631044113,303567473,0.0,0.0,1
1631044113.3288538,1631044113,323656239,0.0,0.0,1
1631044113.3440917,1631044113,343523901,0.0,0.0,1
1631044113.3652983,1631044113,363608542,0.0,0.0,1
1631044113.3841894,1631044113,383551822,0.0,0.0,1
1631044113.4047015,1631044113,403590468,0.0,0.0,1
1631044113.4310436,1631044113,425541436,0.0,0.0,1
1631044113.4448023,1631044113,443640381,0.0,0.0,1
1631044113.4644594,1631044113,463552908,0.0,0.0,1
1631044113.485165,1631044113,483531679,0.0,0.0,1
1631044113.5042937,1631044113,503541946,0.0,0.0,1
1631044113.525643,1631044113,523550089,0.0,0.0,1
1631044113.544464,1631044113,543528360,0.0,0.0,1
1631044113.5647655,1631044113,563670241,0.0,0.0,1
1631044113.5843983,1631044113,583566894,0.0,0.0,1
1631044113.60439,1631044113,603538665,0.0,0.0,1
1631044113.625361,1631044113,623605678,0.0,0.0,1
1631044113.6446254,1631044113,643524204,0.0,0.0,1
1631044113.6651757,1631044113,664025676,0.0,0.0,1
1631044113.6851566,1631044113,683540740,0.0,0.0,1
1631044113.704252,1631044113,703549133,0.0,0.0,1
1631044113.7306566,1631044113,723941490,0.0,0.0,1
1631044113.7443612,1631044113,743546546,0.0,0.0,1
1631044113.7644043,1631044113,763564688,0.0,0.0,1
1631044113.7844431,1631044113,783545333,0.0,0.0,1
1631044113.8049562,1631044113,803554476,0.0,0.0,1
1631044113.8312228,1631044113,823602990,0.0,0.0,1
1631044113.8452375,1631044113,843547264,0.0,0.0,1
1631044113.8649454,1631044113,863763013,0.0,0.0,1
1631044113.884288,1631044113,883539177,0.0,0.0,1
1631044113.9045432,1631044113,903565568,0.0,0.0,1
1631044113.9263866,1631044113,923844686,0.0,0.0,1
1631044113.9485471,1631044113,943558357,0.0,0.0,1
1631044113.9645734,1631044113,963579873,0.0,0.0,1
1631044113.9842722,1631044113,983552020,0.0,0.0,1
1631044114.0045764,1631044114,3528540,0.0,0.0,1
1631044114.0260646,1631044114,23590803,0.0,0.0,1
1631044114.0450406,1631044114,43522578,0.0,0.0,1
1631044114.0657978,1631044114,63540470,0.0,0.0,1
1631044114.0857716,1631044114,83577486,0.0,0.0,1
1631044114.1045356,1631044114,103536508,0.0,0.0,1
1631044114.1272006,1631044114,124098225,0.0,0.0,1
1631044114.1443582,1631044114,143524547,0.0,0.0,1
1631044114.1647973,1631044114,163606933,0.0,0.0,1
1631044114.1843355,1631044114,183545332,0.0,0.0,1
1631044114.20441,1631044114,203547601,0.0,0.0,1
1631044114.234807,1631044114,223589741,0.0,0.0,1
1631044114.2442565,1631044114,243529015,0.0,0.0,1
1631044114.27865,1631044114,263535908,0.0,0.0,1
1631044114.2847726,1631044114,283553800,0.0,0.0,1
1631044114.3047264,1631044114,303547944,0.0,0.0,1
1631044114.3250673,1631044114,323596834,0.0,0.0,1
1631044114.3447552,1631044114,343518984,0.0,0.0,1
1631044114.3645184,1631044114,363621994,0.0,0.0,1
1631044114.3851936,1631044114,383550519,0.0,0.0,1
1631044114.4047556,1631044114,403551163,0.0,0.0,1
1631044114.427613,1631044114,423593552,0.0,0.0,1
1631044114.445017,1631044114,443568829,0.0,0.0,1
1631044114.4651122,1631044114,463545605,0.0,0.0,1
1631044114.486141,1631044114,483594375,0.0,0.0,1
1631044114.5046985,1631044114,503553653,0.0,0.0,1
1631044114.5256367,1631044114,523581050,0.0,0.0,1
1631044114.544283,1631044114,543538828,0.0,0.0,1
1631044114.5645912,1631044114,563574224,0.0,0.0,1
1631044114.584584,1631044114,583552000,0.0,0.0,1
1631044114.6047058,1631044114,603550775,0.0,0.0,1
1631044114.6347213,1631044114,623956886,0.0,0.0,1
1631044114.6447587,1631044114,643581445,0.0,0.0,1
1631044114.6657588,1631044114,664271281,0.0,0.0,1
1631044114.6850867,1631044114,683542373,0.0,0.0,1
1631044114.704524,1631044114,703542522,0.0,0.0,1
1631044114.7304277,1631044114,724184612,0.0,0.0,1
1631044114.7445686,1631044114,743526697,0.0,0.0,1
1631044114.7650979,1631044114,763556969,0.0,0.0,1
1631044114.785454,1631044114,783561492,0.0,0.0,1
1631044114.8049412,1631044114,803554392,0.0,0.0,1
1631044114.8292456,1631044114,823594788,0.0,0.0,1
1631044114.845405,1631044114,843611686,0.0,0.0,1
1631044114.8651547,1631044114,863592837,0.0,0.0,1
1631044114.8874085,1631044114,883992574,0.0,0.0,1
1631044114.904955,1631044114,903537265,0.0,0.0,1
1631044114.9266195,1631044114,923697650,0.0,0.0,1
1631044114.9502797,1631044114,943532939,0.0,0.0,1
1631044114.9652145,1631044114,963611457,0.0,0.0,1
1631044114.9849448,1631044114,983530238,0.0,0.0,1
1631044115.0051894,1631044115,3555135,0.0,0.0,1
1631044115.0346532,1631044115,23648776,0.0,0.0,1
1631044115.0454602,1631044115,43686297,0.0,0.0,1
1631044115.06457,1631044115,63577456,0.0,0.0,1
1631044115.084625,1631044115,83578730,0.0,0.0,1
1631044115.1042676,1631044115,103559007,0.0,0.0,1
1631044115.1297646,1631044115,123805508,0.0,0.0,1
1631044115.144295,1631044115,143521184,0.0,0.0,1
1631044115.1660178,1631044115,163667819,0.0,0.0,1
1631044115.185438,1631044115,183829579,0.0,0.0,1
1631044115.205017,1631044115,203542005,0.0,0.0,1
1631044115.2374017,1631044115,223604148,0.0,0.0,1
1631044115.2446833,1631044115,243536554,0.0,0.0,1
1631044115.282211,1631044115,273809877,0.0,0.0,1
1631044115.2863219,1631044115,283563225,0.0,0.0,1
1631044115.3046865,1631044115,303538876,0.0,0.0,1
1631044115.3300996,1631044115,323853247,0.0,0.0,1
1631044115.344764,1631044115,343553174,0.0,0.0,1
1631044115.3647587,1631044115,363575821,0.0,0.0,1
1631044115.384537,1631044115,383521725,0.0,0.0,1
1631044115.4049795,1631044115,403555246,0.0,0.0,1
1631044115.4291086,1631044115,423603641,0.0,0.0,1
1631044115.4447985,1631044115,443535165,0.0,0.0,1
1631044115.464715,1631044115,463567178,0.0,0.0,1
1631044115.4846563,1631044115,483527948,0.0,0.0,1
1631044115.5050821,1631044115,503571460,0.0,0.0,1
1631044115.5271385,1631044115,524534386,0.0,0.0,1
1631044115.5441964,1631044115,543528371,0.0,0.0,1
1631044115.5645273,1631044115,563532761,0.0,0.0,1
1631044115.5845597,1631044115,583566524,0.0,0.0,1
1631044115.604498,1631044115,603550792,0.0,0.0,1
1631044115.6273794,1631044115,623673547,0.0,0.0,1
1631044115.6446927,1631044115,643612318,0.0,0.0,1
1631044115.6645668,1631044115,663591961,0.0,0.0,1
1631044115.684564,1631044115,683522734,0.0,0.0,1
1631044115.7067862,1631044115,704121444,0.0,0.0,1
1631044115.7303042,1631044115,724060091,0.0,0.0,1
1631044115.7466083,1631044115,744020111,0.0,0.0,1
1631044115.766169,1631044115,763545796,0.0,0.0,1
1631044115.7842963,1631044115,783533938,0.0,0.0,1
1631044115.804788,1631044115,803552452,0.0,0.0,1
1631044115.830564,1631044115,823594465,0.0,0.0,1
1631044115.8445966,1631044115,843527362,0.0,0.0,1
1631044115.865434,1631044115,863573499,0.0,0.0,1
1631044115.8860385,1631044115,883569515,0.0,0.0,1
1631044115.9045296,1631044115,903541534,0.0,0.0,1
1631044115.927146,1631044115,924082125,0.0,0.0,1
1631044115.944468,1631044115,943532317,0.0,0.0,1
1631044115.9650433,1631044115,963714441,0.0,0.0,1
1631044115.9843729,1631044115,983527849,0.0,0.0,1
1631044116.0044787,1631044116,3537990,0.0,0.0,1
1631044116.0291293,1631044116,23603125,0.0,0.0,1
1631044116.0445833,1631044116,43538147,0.0,0.0,1
1631044116.0644314,1631044116,63541412,0.0,0.0,1
1631044116.0850914,1631044116,83568176,0.0,0.0,1
1631044116.1043963,1631044116,103562068,0.0,0.0,1
1631044116.1270783,1631044116,123774814,0.0,0.0,1
1631044116.1444945,1631044116,143565100,0.0,0.0,1
1631044116.1644423,1631044116,163571365,0.0,0.0,1
1631044116.184709,1631044116,183620627,0.0,0.0,1
1631044116.2045739,1631044116,203549524,0.0,0.0,1
1631044116.2348952,1631044116,223585412,0.0,0.0,1
1631044116.2444572,1631044116,243530933,0.0,0.0,1
1631044116.2738945,1631044116,271777308,0.0,0.0,1
1631044116.2852135,1631044116,283592460,0.0,0.0,1
1631044116.3045187,1631044116,303603975,0.0,0.0,1
1631044116.3266332,1631044116,323633238,0.0,0.0,1
1631044116.3440835,1631044116,343522639,0.0,0.0,1
1631044116.3647563,1631044116,363596523,0.0,0.0,1
1631044116.3850334,1631044116,383597539,0.0,0.0,1
1631044116.4056485,1631044116,404282867,0.0,0.0,1
1631044116.4322052,1631044116,425081184,0.0,0.0,1
1631044116.4452217,1631044116,443550222,0.0,0.0,1
1631044116.4649048,1631044116,463562742,0.0,0.0,1
1631044116.4852674,1631044116,483546141,0.0,0.0,1
1631044116.5050304,1631044116,503540663,0.0,0.0,1
1631044116.528052,1631044116,523979894,0.0,0.0,1
1631044116.5445507,1631044116,543542832,0.0,0.0,1
1631044116.5653484,1631044116,563739960,0.0,0.0,1
1631044116.585021,1631044116,583553374,0.0,0.0,1
1631044116.604589,1631044116,603543772,0.0,0.0,1
1631044116.6280062,1631044116,623594539,0.0,0.0,1
1631044116.6441672,1631044116,643523317,0.0,0.0,1
1631044116.6642716,1631044116,663555086,0.0,0.0,1
1631044116.6851838,1631044116,683520361,0.0,0.0,1
1631044116.7047536,1631044116,703546631,0.0,0.0,1
1631044116.7342527,1631044116,724253337,0.0,0.0,1
1631044116.7457128,1631044116,744375098,0.0,0.0,1
1631044116.764603,1631044116,763576694,0.0,0.0,1
1631044116.7843044,1631044116,783526845,0.0,0.0,1
1631044116.80462,1631044116,803553489,0.0,0.0,1
1631044116.8318033,1631044116,823590258,0.0,0.0,1
1631044116.8444462,1631044116,843529035,0.0,0.0,1
1631044116.8649654,1631044116,863581427,0.0,0.0,1
1631044116.8856158,1631044116,883607322,0.0,0.0,1
1631044116.904753,1631044116,903605219,0.0,0.0,1
1631044116.9257355,1631044116,923722855,0.0,0.0,1
1631044116.9444635,1631044116,943552142,0.0,0.0,1
1631044116.96517,1631044116,963544540,0.0,0.0,1
1631044116.9844122,1631044116,983564560,0.0,0.0,1
1631044117.004765,1631044117,3552333,0.0,0.0,1
1631044117.032784,1631044117,23583727,0.0,0.0,1
1631044117.044354,1631044117,43538128,0.0,0.0,1
1631044117.0644076,1631044117,63623892,0.0,0.0,1
1631044117.0844228,1631044117,83525923,0.0,0.0,1
1631044117.1045995,1631044117,103579189,0.0,0.0,1
1631044117.1277235,1631044117,124667735,0.0,0.0,1
1631044117.144293,1631044117,143532862,0.0,0.0,1
1631044117.164737,1631044117,163605003,0.0,0.0,1
1631044117.184962,1631044117,183722763,0.0,0.0,1
1631044117.2049127,1631044117,203555176,0.0,0.0,1
1631044117.2334085,1631044117,223606943,0.0,0.0,1
1631044117.2444363,1631044117,243534971,0.0,0.0,1
1631044117.2795503,1631044117,263624860,0.0,0.0,1
1631044117.2843227,1631044117,283539140,0.0,0.0,1
1631044117.3045099,1631044117,303546536,0.0,0.0,1
1631044117.3308258,1631044117,324411852,0.0,0.0,1
1631044117.344736,1631044117,343550579,0.0,0.0,1
1631044117.3646703,1631044117,363585223,0.0,0.0,1
1631044117.3842273,1631044117,383546748,0.0,0.0,1
1631044117.404807,1631044117,403584141,0.0,0.0,1
1631044117.4322453,1631044117,427208202,0.0,0.0,1
1631044117.453418,1631044117,443528816,0.0,0.0,1
1631044117.4658418,1631044117,463570961,0.0,0.0,1
1631044117.4841838,1631044117,483532613,0.0,0.0,1
1631044117.5053055,1631044117,503555009,0.0,0.0,1
1631044117.5294228,1631044117,523603403,0.0,0.0,1
1631044117.5447266,1631044117,543535183,0.0,0.0,1
1631044117.5653565,1631044117,563564578,0.0,0.0,1
1631044117.5847638,1631044117,583532229,0.0,0.0,1
1631044117.6045802,1631044117,603542502,0.0,0.0,1
1631044117.6308324,1631044117,623591271,0.0,0.0,1
1631044117.6450934,1631044117,643533799,0.0,0.0,1
1631044117.6646695,1631044117,663568069,0.0,0.0,1
1631044117.6846285,1631044117,683528471,0.0,0.0,1
1631044117.704834,1631044117,703540119,0.0,0.0,1
1631044117.7322695,1631044117,723655756,0.0,0.0,1
1631044117.7450514,1631044117,743542790,0.0,0.0,1
1631044117.767702,1631044117,763982773,0.0,0.0,1
1631044117.7852025,1631044117,784244772,0.0,0.0,1
1631044117.8045516,1631044117,803555734,0.0,0.0,1
1631044117.8328147,1631044117,823686245,0.0,0.0,1
1631044117.8441901,1631044117,843536782,0.0,0.0,1
1631044117.8648124,1631044117,863590801,0.0,0.0,1
1631044117.8871808,1631044117,884653476,0.0,0.0,1
1631044117.9043558,1631044117,903567100,0.0,0.0,1
1631044117.9307137,1631044117,924053703,0.0,0.0,1
1631044117.9447362,1631044117,943612767,0.0,0.0,1
1631044117.964713,1631044117,963634038,0.0,0.0,1
1631044117.9844325,1631044117,983588066,0.0,0.0,1
1631044118.004737,1631044118,3600338,0.0,0.0,1
1631044118.0332031,1631044118,24105065,0.0,0.0,1
1631044118.0443947,1631044118,43550015,0.0,0.0,1
1631044118.064591,1631044118,63619406,0.0,0.0,1
1631044118.0844166,1631044118,83530313,0.0,0.0,1
1631044118.104802,1631044118,103575207,0.0,0.0,1
1631044118.1284533,1631044118,124329911,0.0,0.0,1
